{
  "datas": [
    {
      "allowAccess": 1,
      "comment": 0,
      "createtime": 1420440198,
      "desc": "",
      "id": 513149,
      "name": "不知名",
      "pre": "http://imgcache.qq.com/ac/qzone_v5/photo/no_photo_s.png",
      "topicid": "V11lB9BP36xOKD",
      "totalnum": 0,
      "uid": 1018793342
    },
    {
      "allowAccess": 1,
      "comment": 3,
      "createtime": 1420558862,
      "desc": "",
      "id": 513150,
      "name": "七龙珠",
      "pre": "http://a2.qpic.cn/psb?/V11lB9BP3ZICM8/9tpk1jWnPJDSV3kVLm3liGGkGU8BoAhVv1y016RPeC4!/a/dAUBAAAAAAAA",
      "topicid": "V11lB9BP3ZICM8",
      "totalnum": 2,
      "uid": 1018793342
    },
    {
      "allowAccess": 1,
      "comment": 3,
      "createtime": 1424274617,
      "desc": "",
      "id": 513151,
      "name": "除夕夜放炮",
      "pre": "http://a3.qpic.cn/psb?/V11lB9BP0H9DbB/KmUCqOPaUD6DXXQXkz.qCbEnSlk58flKHX*ANm9Su*o!/a/dAIBAAAAAAAA",
      "topicid": "V11lB9BP0H9DbB",
      "totalnum": 61,
      "uid": 1018793342
    },
    {
      "allowAccess": 1,
      "comment": 0,
      "createtime": 1427114219,
      "desc": "",
      "id": 513152,
      "name": "qq头像",
      "pre": "http://a1.qpic.cn/psb?/V11lB9BP0rKAft/SVaM.KEy0oFQu3scTqGSAiE9nZh*BdmZYWtb3krC1Ns!/a/dAgAAAAAAAAA",
      "topicid": "V11lB9BP0rKAft",
      "totalnum": 10,
      "uid": 1018793342
    },
    {
      "allowAccess": 1,
      "comment": 0,
      "createtime": 1403782876,
      "desc": "",
      "id": 513153,
      "name": "宝贝1周岁",
      "pre": "http://a1.qpic.cn/psb?/V12nq3VZ0RlKVx/gaOEQ8FTYx6.MaG87v.zvqAbsM2x1.Uj721LxSke1p0!/a/dFC*UcjrCAAA",
      "topicid": "V12nq3VZ0RlKVx",
      "totalnum": 40,
      "uid": 1018793235
    },
    {
      "allowAccess": 1,
      "comment": 7,
      "createtime": 1373786896,
      "desc": "",
      "id": 513154,
      "name": "baby",
      "pre": "http://b355.photo.store.qq.com/psb?/V12nq3VZ1h6L71/nK9b1tjatPSxDmIpai6hru6UTZZBCvaikMDr9my6vMo!/a/dGMBAAAAAAAA",
      "topicid": "V12nq3VZ1h6L71",
      "totalnum": 1386,
      "uid": 1018793235
    },
    {
      "allowAccess": 1,
      "comment": 0,
      "createtime": 1342084272,
      "desc": "承诺，有时候，就是一个骗子说给一个傻子听的。",
      "id": 513155,
      "name": "爱是一种遇见，不能等待，也不能准备。",
      "pre": "http://b221.photo.store.qq.com/psb?/V12nq3VZ0Pe4ZR/6JzNyW9mIXtaz45ikd5irMIoh.8bGltoYylDgdYfKWY!/a/YaInxoMlXgAAYqmxx4MnXgAA",
      "topicid": "V12nq3VZ0Pe4ZR",
      "totalnum": 71,
      "uid": 1018793235
    },
    {
      "allowAccess": 1,
      "comment": 0,
      "createtime": 1323483006,
      "desc": "",
      "id": 513156,
      "name": "主角—思程和焕新 拍于2011年12月10日",
      "pre": "http://b86.photo.store.qq.com/psb?/V12nq3VZ3y6hVn/Iab5cYd7mX358WTczIp76OdolaJBz56RiFNrRUKHNu4!/a/YX4fRDNPAQAAYuU1RzNhAQAA",
      "topicid": "V12nq3VZ3y6hVn",
      "totalnum": 84,
      "uid": 1018793235
    },
    {
      "allowAccess": 1,
      "comment": 2,
      "createtime": 1322378379,
      "desc": "",
      "id": 513157,
      "name": "我们的青葱岁月",
      "pre": "http://b84.photo.store.qq.com/psb?/V12nq3VZ1YWUQt/7TXmgEknkrM6v.2cUL*.Q3fdon4HDtmE2G71BEquBMM!/a/YeC.JjJbOQAAYrakIDIvOgAA",
      "topicid": "V12nq3VZ1YWUQt",
      "totalnum": 82,
      "uid": 1018793235
    },
    {
      "allowAccess": 1,
      "comment": 2,
      "createtime": 1305453653,
      "desc": "",
      "id": 513158,
      "name": "曾华源—成长日记",
      "pre": "http://b84.photo.store.qq.com/psb?/83b80bf5-7c19-4171-9dd3-1af8a721480a/Na.QWpO5D0LJtm8.SqxSb15aQAac5rcp5ljfMVoJajc!/a/YeMfHzLWGwAAYi4lHzJbGwAA",
      "topicid": "83b80bf5-7c19-4171-9dd3-1af8a721480a",
      "totalnum": 232,
      "uid": 1018793235
    }
  ],
  "page": 2,
  "pages": 8737,
  "rows": 10,
  "start": 10,
  "total": 87362
}